<?xml version="1.0" encoding="UTF-8" standalone="no"?>
<!-- Created with Inkscape (http://www.inkscape.org/) -->

<svg
   xmlns:dc="http://purl.org/dc/elements/1.1/"
   xmlns:cc="http://creativecommons.org/ns#"
   xmlns:rdf="http://www.w3.org/1999/02/22-rdf-syntax-ns#"
   xmlns:svg="http://www.w3.org/2000/svg"
   xmlns="http://www.w3.org/2000/svg"
   xmlns:sodipodi="http://sodipodi.sourceforge.net/DTD/sodipodi-0.dtd"
   xmlns:inkscape="http://www.inkscape.org/namespaces/inkscape"
   version="1.1"
   id="svg122"
   width="390.52426"
   height="127.68932"
   viewBox="0 0 390.52426 127.68932"
   sodipodi:docname="xmpp_black.svg"
   inkscape:version="0.92.5 (2060ec1f9f, 2020-04-08)">
  <metadata
     id="metadata128">
    <rdf:RDF>
      <cc:Work
         rdf:about="">
        <dc:format>image/svg+xml</dc:format>
        <dc:type
           rdf:resource="http://purl.org/dc/dcmitype/StillImage" />
        <dc:title></dc:title>
      </cc:Work>
    </rdf:RDF>
  </metadata>
  <defs
     id="defs126" />
  <sodipodi:namedview
     pagecolor="#ffffff"
     bordercolor="#666666"
     borderopacity="1"
     objecttolerance="10"
     gridtolerance="10"
     guidetolerance="10"
     inkscape:pageopacity="0"
     inkscape:pageshadow="2"
     inkscape:window-width="1366"
     inkscape:window-height="703"
     id="namedview124"
     showgrid="false"
     inkscape:zoom="0.7169849"
     inkscape:cx="642.73934"
     inkscape:cy="63.844662"
     inkscape:window-x="0"
     inkscape:window-y="0"
     inkscape:window-maximized="1"
     inkscape:current-layer="svg122" />
  <path
     inkscape:connector-curvature="0"
     id="path287"
     d="m 99.032459,121.91532 c 1.153401,-0.22216 3.040781,-0.22216 4.194181,0 1.15339,0.22216 0.2097,0.40392 -2.09709,0.40392 -2.306801,0 -3.250491,-0.18176 -2.097091,-0.40392 z m -13.72578,-3.64016 c -4.3453,-1.28405 -11.4286,-3.98794 -15.74067,-6.00865 -4.31207,-2.02069 -8.35213,-3.674 -8.97791,-3.674 -0.62578,0 -4.26584,1.44525 -8.08902,3.21167 -7.05688,3.26048 -19.22213,7.04136 -22.65177,7.04002 -1.03554,-4e-4 0.84341,-1.27666 4.17544,-2.83613 8.42995,-3.94539 17.70874,-10.34885 17.70874,-12.22111 0,-0.85702 -2.67972,-3.69054 -5.95494,-6.296707 -14.03502,-11.16801 -28.2181,-29.00906 -35.9654496,-45.24135 -3.88755,-8.14522 -8.39989,-22.32885 -8.42398,-26.4791 -0.01,-1.72975 -0.25133,-2.08473 -0.81374999,-1.19717 -1.20468,1.90113 -2.29480001,-13.79647 -1.15559,-16.6403203 0.51338,-1.28155 0.96001,-1.86039 0.9925,-1.28632 0.0325,0.57408 6.14062999,2.87367 13.57363959,5.1102003 l 13.51456,4.06643 v 3.44371 c 0,21.21134 11.21117,49.42242 27.79622,69.94468 5.91845,7.32347 7.00282,7.17482 14.31292,-1.96205 15.30649,-19.13152 25.06015,-42.54708 26.5673,-63.77993 0.67632,-9.52801 -0.92945,-8.1599 15.469911,-13.1802 6.03971,-1.8489203 11.44454,-3.0753803 12.01073,-2.7254603 1.47252,0.91008 0.26859,14.8802403 -2.10407,24.4150403 -3.3129,13.31321 -8.85704,25.22433 -17.44004,37.46847 -5.558251,7.92916 -19.520781,22.23581 -27.447921,28.12441 -3.46019,2.570367 -6.29126,5.053107 -6.29126,5.517207 0,2.39331 10.14162,9.40851 20.9047,14.46027 8.0715,3.78844 5.46502,4.10556 -5.97029,0.72639 z M 163.82859,78.049803 c 4.47475,-4.49558 8.13591,-8.93623 8.13591,-9.86812 0,-0.93189 -3.14563,-5.1129 -6.99029,-9.29113 -3.84466,-4.17823 -6.99029,-7.91622 -6.99029,-8.30664 0,-0.39042 2.27813,-0.70985 5.06252,-0.70985 4.85995,0 5.23768,0.185 9.43963,4.62304 2.4074,2.54268 4.97635,5.4786 5.70876,6.52427 2.21978,3.16919 4.41729,2.19991 10.48117,-4.62304 l 5.79843,-6.52427 h 5.05571 c 2.78065,0 5.05572,0.41638 5.05572,0.92528 0,0.5089 -3.14563,4.34138 -6.99029,8.51662 -3.84466,4.17524 -6.9903,8.21676 -6.9903,8.98115 0,0.76439 3.64096,5.11055 8.09101,9.65813 l 8.09099,8.26834 h -6.03695 -6.03694 l -5.84133,-6.52428 c -3.21273,-3.58835 -6.56807,-6.52427 -7.45631,-6.52427 -0.88825,0 -4.24359,2.93592 -7.45632,6.52427 l -5.84132,6.52428 h -6.21271 -6.21271 z m 53.08647,-9.71608 0.25332,-17.99364 h 7.92233 7.92233 l 6.47822,11.92382 c 5.03628,9.26979 6.85911,11.86298 8.18948,11.65049 1.12122,-0.17909 3.86872,-4.29042 7.96838,-11.92382 l 6.25712,-11.65049 8.15534,-0.2693 8.15534,-0.26929 v 18.21104 18.21105 h -4.19417 -4.19418 l -0.0143,-11.8835 c -0.0225,-18.7053 -1.37537,-18.78806 -11.42738,-0.69903 l -6.7331,12.11651 h -4.09522 -4.09522 l -7.11598,-12.57492 c -9.53846,-16.85567 -10.19674,-16.87466 -10.53092,-0.30382 l -0.25972,12.87874 -4.44749,0.2849 -4.4475,0.28491 z m 72.69921,-0.0519 0.25314,-17.94174 15.37864,-0.2803 c 18.42696,-0.33585 22.82168,0.18229 25.6654,3.02601 2.68593,2.68594 3.83743,10.63578 2.34391,16.18228 -1.70256,6.32285 -3.72405,7.09297 -20.04143,7.63511 l -14.02613,0.46602 -0.28408,4.42719 -0.28408,4.42718 h -4.62925 -4.62926 z m 33.15411,0.0466 c 1.54349,-1.54349 1.41605,-8.65874 -0.1788,-9.98234 -0.86289,-0.71614 -4.99777,-0.9884 -12.34951,-0.81315 l -11.05227,0.26346 -0.28876,4.54177 c -0.46079,7.24757 -0.68978,7.10871 11.72359,7.10871 7.33407,0 11.40189,-0.37459 12.14575,-1.11845 z m 20.69126,-0.27961 v -18.17475 h 17.27265 c 18.36375,0 22.1601,0.69561 24.86389,4.55581 0.75376,1.07613 1.59155,1.73551 1.86178,1.46529 0.27022,-0.27022 0.77254,1.26735 1.11624,3.41682 0.71046,4.44295 -0.1989,12.21887 -1.34604,11.5099 -0.41829,-0.25852 -1.02884,0.37534 -1.35678,1.40857 -1.08824,3.42873 -4.12011,4.18858 -18.64475,4.67274 l -13.98058,0.46602 -0.28408,4.42718 -0.28408,4.42719 h -4.60912 -4.60913 z m 33.0208,-0.0666 c 1.90005,-1.90004 1.88318,-7.30405 -0.0287,-9.21599 -1.23215,-1.23216 -3.39238,-1.4476 -12.34951,-1.23162 l -10.85617,0.26176 -0.28876,4.54177 c -0.4596,7.22881 -0.65181,7.10872 11.3774,7.10872 8.46739,0 10.98467,-0.30356 12.14575,-1.46464 z"
     style="fill:none;" />
</svg>
